core_pipe/isaex/mkTb_vw.vcd
$date
	Thu Oct 27 03:18:58 2022
$end
$version
	Icarus Verilog
$end
$timescale
	1s
$end
$scope module main $end
$var reg 1 ! CLK $end
$var reg 1 " RST $end
$var reg 32 # cycle [31:0] $end
$var reg 1 $ do_cycles $end
$var reg 1 % do_fsdb $end
$var reg 1 & do_fst $end
$var reg 1 ' do_vcd $end
$var reg 2048 ( filename [2048:1] $end
$scope module top $end
$var wire 1 ! CLK $end
$var wire 1 " RST_N $end
$var wire 1 ) \isa_ex_itf$EN_alu_set $end
$var wire 1 * \reg_itf$EN_reg_wr_back $end
$var wire 12 + \reg_itf$reg_rd_out_id_to_reg [11:0] $end
$var wire 38 , \reg_itf$reg_wr_back_alu_out_to_reg [37:0] $end
$var wire 237 - \isa_ex_itf$alu_set_alu_in [236:0] $end
$var wire 38 . \isa_ex_itf$alu_out_to_reg [37:0] $end
$var wire 34 / \isa_ex_itf$alu_out_to_pipectrl [33:0] $end
$var wire 98 0 \isa_ex_itf$alu_out_to_mem [97:0] $end
$var wire 1 1 \counter$EN $end
$var wire 10 2 \counter$D_IN [9:0] $end
$var wire 32 3 alu_in_instr__h248 [31:0] $end
$var reg 10 4 counter [9:0] $end
$scope module isa_ex_itf $end
$var wire 1 ! CLK $end
$var wire 1 ) EN_alu_set $end
$var wire 1 5 RDY_alu_out_to_mem $end
$var wire 1 6 RDY_alu_out_to_pipectrl $end
$var wire 1 7 RDY_alu_out_to_reg $end
$var wire 1 8 RDY_alu_set $end
$var wire 1 " RST_N $end
$var wire 98 9 alu_out_to_mem [97:0] $end
$var wire 1 : \alu_out_to_memx$EN $end
$var wire 34 ; alu_out_to_pipectrl [33:0] $end
$var wire 34 < \alu_out_to_pipectrlx$D_IN [33:0] $end
$var wire 1 = \alu_out_to_pipectrlx$EN $end
$var wire 1 > \alu_out_to_regx$EN $end
$var wire 237 ? alu_set_alu_in [236:0] $end
$var wire 1 @ x__h2391 $end
$var wire 1 A x__h2399 $end
$var wire 12 B alu_set_alu_in_BITS_236_TO_230_CONCAT_alu_set__ETC__q5 [11:0] $end
$var wire 12 C alu_set_alu_in_BITS_236_TO_225__q1 [11:0] $end
$var wire 32 D alu_set_alu_in_BITS_172_TO_141__q2 [31:0] $end
$var wire 32 E alu_set_alu_in_BITS_140_TO_109__q3 [31:0] $end
$var wire 38 F \alu_out_to_regx$D_IN [37:0] $end
$var wire 38 G alu_out_to_reg [37:0] $end
$var wire 98 H \alu_out_to_memx$D_IN [97:0] $end
$var wire 32 I alu_inx_wget_BITS_172_TO_141_PLUS_SEXT_alu_inx_ETC___d96 [31:0] $end
$var wire 32 J alu_inx_wget_BITS_172_TO_141_PLUS_SEXT_alu_inx_ETC___d10 [31:0] $end
$var wire 32 K SEXT_alu_inx_wget_BITS_236_TO_225____d9 [31:0] $end
$var wire 64 L SEXT_alu_inx_wget_BITS_172_TO_141____d40 [63:0] $end
$var wire 128 M SEXT_alu_inx_wget_BITS_172_TO_141__0_MUL_SEXT__ETC___d43 [127:0] $end
$var wire 64 N SEXT_alu_inx_wget_BITS_140_TO_109_1___d42 [63:0] $end
$var wire 128 O SEXT_NEG_alu_inx_wget_BITS_172_TO_141_8_9_MUL__ETC___d50 [127:0] $end
$var wire 32 P NEG_alu_set_alu_in_BITS_172_TO_141__q4 [31:0] $end
$var wire 32 Q IF_alu_inx_wget_BITS_236_TO_230_8_EQ_0b1_9_THE_ETC___d80 [31:0] $end
$var reg 32 R CASE_alu_inx_wget_BITS_172_TO_141_PLUS_SEXT_al_ETC__q10 [31:0] $end
$var reg 32 S CASE_alu_set_alu_in_BITS_211_TO_205_0b10011_IF_ETC__q14 [31:0] $end
$var reg 1 T CASE_alu_set_alu_in_BITS_211_TO_205_0b10011_al_ETC__q15 $end
$var reg 32 U CASE_alu_set_alu_in_BITS_211_TO_205_0b11_0_0b1_ETC__q12 [31:0] $end
$var reg 32 V CASE_alu_set_alu_in_BITS_211_TO_205_0b11_0_0b1_ETC__q13 [31:0] $end
$var reg 32 W CASE_alu_set_alu_in_BITS_211_TO_205_0b11_alu_i_ETC__q9 [31:0] $end
$var reg 5 X CASE_alu_set_alu_in_BITS_211_TO_205_0b11_alu_s_ETC__q16 [4:0] $end
$var reg 32 Y CASE_alu_set_alu_in_BITS_219_TO_217_0b0_CASE_a_ETC__q11 [31:0] $end
$var reg 32 Z CASE_alu_set_alu_in_BITS_219_TO_217_0b0_CASE_a_ETC__q8 [31:0] $end
$var reg 32 [ CASE_alu_set_alu_in_BITS_219_TO_217_0b0_SEXT_a_ETC__q6 [31:0] $end
$var reg 32 \ CASE_alu_set_alu_in_BITS_236_TO_230_0b0_alu_se_ETC__q7 [31:0] $end
$var reg 32 ] IF_alu_inx_wget_BITS_219_TO_217_EQ_0b0_THEN_al_ETC___d36 [31:0] $end
$var reg 98 ^ alu_out_to_memx [97:0] $end
$var reg 34 _ alu_out_to_pipectrlx [33:0] $end
$var reg 38 ` alu_out_to_regx [37:0] $end
$upscope $end
$scope module reg_itf $end
$var wire 1 ! CLK $end
$var wire 1 * EN_reg_wr_back $end
$var wire 1 a RDY_reg_rd_out $end
$var wire 1 b RDY_reg_wr_back $end
$var wire 1 " RST_N $end
$var wire 12 c reg_rd_out_id_to_reg [11:0] $end
$var wire 38 d reg_wr_back_alu_out_to_reg [37:0] $end
$var wire 1 e \regs_0$EN $end
$var wire 1 f \regs_1$EN $end
$var wire 1 g \regs_10$EN $end
$var wire 1 h \regs_11$EN $end
$var wire 1 i \regs_12$EN $end
$var wire 1 j \regs_13$EN $end
$var wire 1 k \regs_14$EN $end
$var wire 1 l \regs_15$EN $end
$var wire 1 m \regs_16$EN $end
$var wire 1 n \regs_17$EN $end
$var wire 1 o \regs_18$EN $end
$var wire 1 p \regs_19$EN $end
$var wire 1 q \regs_2$EN $end
$var wire 1 r \regs_20$EN $end
$var wire 1 s \regs_21$EN $end
$var wire 1 t \regs_22$EN $end
$var wire 1 u \regs_23$EN $end
$var wire 1 v \regs_24$EN $end
$var wire 1 w \regs_25$EN $end
$var wire 1 x \regs_26$EN $end
$var wire 1 y \regs_27$EN $end
$var wire 1 z \regs_28$EN $end
$var wire 1 { \regs_29$EN $end
$var wire 1 | \regs_3$EN $end
$var wire 1 } \regs_30$EN $end
$var wire 1 ~ \regs_31$EN $end
$var wire 1 !" \regs_4$EN $end
$var wire 1 "" \regs_5$EN $end
$var wire 1 #" \regs_6$EN $end
$var wire 1 $" \regs_7$EN $end
$var wire 1 %" \regs_8$EN $end
$var wire 1 &" \regs_9$EN $end
$var wire 32 '" \regs_9$D_IN [31:0] $end
$var wire 32 (" \regs_8$D_IN [31:0] $end
$var wire 32 )" \regs_7$D_IN [31:0] $end
$var wire 32 *" \regs_6$D_IN [31:0] $end
$var wire 32 +" \regs_5$D_IN [31:0] $end
$var wire 32 ," \regs_4$D_IN [31:0] $end
$var wire 32 -" \regs_31$D_IN [31:0] $end
$var wire 32 ." \regs_30$D_IN [31:0] $end
$var wire 32 /" \regs_3$D_IN [31:0] $end
$var wire 32 0" \regs_29$D_IN [31:0] $end
$var wire 32 1" \regs_28$D_IN [31:0] $end
$var wire 32 2" \regs_27$D_IN [31:0] $end
$var wire 32 3" \regs_26$D_IN [31:0] $end
$var wire 32 4" \regs_25$D_IN [31:0] $end
$var wire 32 5" \regs_24$D_IN [31:0] $end
$var wire 32 6" \regs_23$D_IN [31:0] $end
$var wire 32 7" \regs_22$D_IN [31:0] $end
$var wire 32 8" \regs_21$D_IN [31:0] $end
$var wire 32 9" \regs_20$D_IN [31:0] $end
$var wire 32 :" \regs_2$D_IN [31:0] $end
$var wire 32 ;" \regs_19$D_IN [31:0] $end
$var wire 32 <" \regs_18$D_IN [31:0] $end
$var wire 32 =" \regs_17$D_IN [31:0] $end
$var wire 32 >" \regs_16$D_IN [31:0] $end
$var wire 32 ?" \regs_15$D_IN [31:0] $end
$var wire 32 @" \regs_14$D_IN [31:0] $end
$var wire 32 A" \regs_13$D_IN [31:0] $end
$var wire 32 B" \regs_12$D_IN [31:0] $end
$var wire 32 C" \regs_11$D_IN [31:0] $end
$var wire 32 D" \regs_10$D_IN [31:0] $end
$var wire 32 E" \regs_1$D_IN [31:0] $end
$var wire 32 F" \regs_0$D_IN [31:0] $end
$var wire 64 G" reg_rd_out [63:0] $end
$var wire 32 H" IF_reg_rd_out_id_to_reg_BITS_9_TO_5_9_EQ_reg_w_ETC___d111 [31:0] $end
$var wire 32 I" IF_reg_rd_out_id_to_reg_BITS_4_TO_0_14_EQ_reg__ETC___d118 [31:0] $end
$var reg 32 J" SEL_ARR_regs_0_7_regs_1_8_regs_2_9_regs_3_0_re_ETC___d110 [31:0] $end
$var reg 32 K" SEL_ARR_regs_0_7_regs_1_8_regs_2_9_regs_3_0_re_ETC___d117 [31:0] $end
$var reg 32 L" regs_0 [31:0] $end
$var reg 32 M" regs_1 [31:0] $end
$var reg 32 N" regs_10 [31:0] $end
$var reg 32 O" regs_11 [31:0] $end
$var reg 32 P" regs_12 [31:0] $end
$var reg 32 Q" regs_13 [31:0] $end
$var reg 32 R" regs_14 [31:0] $end
$var reg 32 S" regs_15 [31:0] $end
$var reg 32 T" regs_16 [31:0] $end
$var reg 32 U" regs_17 [31:0] $end
$var reg 32 V" regs_18 [31:0] $end
$var reg 32 W" regs_19 [31:0] $end
$var reg 32 X" regs_2 [31:0] $end
$var reg 32 Y" regs_20 [31:0] $end
$var reg 32 Z" regs_21 [31:0] $end
$var reg 32 [" regs_22 [31:0] $end
$var reg 32 \" regs_23 [31:0] $end
$var reg 32 ]" regs_24 [31:0] $end
$var reg 32 ^" regs_25 [31:0] $end
$var reg 32 _" regs_26 [31:0] $end
$var reg 32 `" regs_27 [31:0] $end
$var reg 32 a" regs_28 [31:0] $end
$var reg 32 b" regs_29 [31:0] $end
$var reg 32 c" regs_3 [31:0] $end
$var reg 32 d" regs_30 [31:0] $end
$var reg 32 e" regs_31 [31:0] $end
$var reg 32 f" regs_4 [31:0] $end
$var reg 32 g" regs_5 [31:0] $end
$var reg 32 h" regs_6 [31:0] $end
$var reg 32 i" regs_7 [31:0] $end
$var reg 32 j" regs_8 [31:0] $end
$var reg 32 k" regs_9 [31:0] $end
$upscope $end
$upscope $end
$upscope $end
$enddefinitions $end
#0
$dumpvars
b10101010101010101010101010101010 k"
b10101010101010101010101010101010 j"
b10101010101010101010101010101010 i"
b10101010101010101010101010101010 h"
b10101010101010101010101010101010 g"
b10101010101010101010101010101010 f"
b10101010101010101010101010101010 e"
b10101010101010101010101010101010 d"
b10101010101010101010101010101010 c"
b10101010101010101010101010101010 b"
b10101010101010101010101010101010 a"
b10101010101010101010101010101010 `"
b10101010101010101010101010101010 _"
b10101010101010101010101010101010 ^"
b10101010101010101010101010101010 ]"
b10101010101010101010101010101010 \"
b10101010101010101010101010101010 ["
b10101010101010101010101010101010 Z"
b10101010101010101010101010101010 Y"
b10101010101010101010101010101010 X"
b10101010101010101010101010101010 W"
b10101010101010101010101010101010 V"
b10101010101010101010101010101010 U"
b10101010101010101010101010101010 T"
b10101010101010101010101010101010 S"
b10101010101010101010101010101010 R"
b10101010101010101010101010101010 Q"
b10101010101010101010101010101010 P"
b10101010101010101010101010101010 O"
b10101010101010101010101010101010 N"
b10101010101010101010101010101010 M"
b10101010101010101010101010101010 L"
b10101010101010101010101010101010 K"
b10101010101010101010101010101010 J"
b10101010101010101010101010101010 I"
b10101010101010101010101010101010 H"
b0 G"
b10101010101010101010101010101010 F"
b10101010101010101010101010101010 E"
b10101010101010101010101010101010 D"
b10101010101010101010101010101010 C"
b10101010101010101010101010101010 B"
b10101010101010101010101010101010 A"
b10101010101010101010101010101010 @"
b10101010101010101010101010101010 ?"
b10101010101010101010101010101010 >"
b10101010101010101010101010101010 ="
b10101010101010101010101010101010 <"
b10101010101010101010101010101010 ;"
b10101010101010101010101010101010 :"
b10101010101010101010101010101010 9"
b10101010101010101010101010101010 8"
b10101010101010101010101010101010 7"
b10101010101010101010101010101010 6"
b10101010101010101010101010101010 5"
b10101010101010101010101010101010 4"
b10101010101010101010101010101010 3"
b10101010101010101010101010101010 2"
b10101010101010101010101010101010 1"
b10101010101010101010101010101010 0"
b10101010101010101010101010101010 /"
b10101010101010101010101010101010 ."
b10101010101010101010101010101010 -"
b10101010101010101010101010101010 ,"
b10101010101010101010101010101010 +"
b10101010101010101010101010101010 *"
b10101010101010101010101010101010 )"
b10101010101010101010101010101010 ("
b10101010101010101010101010101010 '"
0&"
0%"
0$"
0#"
0""
0!"
0~
0}
0|
0{
0z
0y
0x
0w
0v
0u
0t
0s
0r
0q
0p
0o
0n
0m
0l
0k
0j
0i
0h
1g
0f
0e
b10101010101010101010101010101010101010 d
b0 c
1b
1a
b10101010101010101010101010101010101010 `
b1010101010101010101010101010101010 _
b10101010101010101010101010101010101010101010101010101010101010101010101010101010101010101010101010 ^
b1 ]
b0 \
b0 [
b1 Z
b0 Y
b0 X
b0 W
b0 V
b0 U
1T
b1 S
b0 R
b1 Q
b101010110 P
b0 O
b0 N
b0 M
b1111111111111111111111111111111111111111111111111111111010101010 L
b1010101010 K
b101010100 J
b101001010 I
b0 H
b10101010101010101010101010101010101010 G
b1100000 F
b0 E
b11111111111111111111111010101010 D
b1010101010 C
b1010100000 B
0A
0@
b1010101010000000100000000100110000000000000000000000000000000011111111111111111111111010101010000000000000000000000000000000001000010000000000000000000000000000000000000000000000000000000000000000000000000000000000000000000000000000000 ?
1>
1=
b1010101010101010101010101010101010 <
b1010101010101010101010101010101010 ;
1:
b10101010101010101010101010101010101010101010101010101010101010101010101010101010101010101010101010 9
18
17
16
15
b1010101010 4
b101010101000000010000000010011 3
b1010101011 2
11
b10101010101010101010101010101010101010101010101010101010101010101010101010101010101010101010101010 0
b1010101010101010101010101010101010 /
b10101010101010101010101010101010101010 .
b1010101010000000100000000100110000000000000000000000000000000011111111111111111111111010101010000000000000000000000000000000001000010000000000000000000000000000000000000000000000000000000000000000000000000000000000000000000000000000000 -
b10101010101010101010101010101010101010 ,
b0 +
1*
1)
b110010001110101011011010111000000101110011101100110001101100100 (
1'
0&
0%
0$
b0 #
0"
x!
$end
#1
b0 Q
0g
b0 H"
b0 I"
b100000 F
b0 S
b0 ]
b0 Z
b0 F"
b0 E"
b0 D"
b0 C"
b0 B"
b0 A"
b0 @"
b0 ?"
b0 >"
b0 ="
b0 <"
b0 ;"
b0 :"
b0 9"
b0 8"
b0 7"
b0 6"
b0 5"
b0 4"
b0 3"
b0 2"
b0 1"
b0 0"
b0 /"
b0 ."
b0 -"
b0 ,"
b0 +"
b0 *"
b0 )"
b0 ("
b0 '"
b0 J"
b0 K"
b0 P
b0 L
b0 D
b0 \
b0 J
b0 K
b0 C
b0 I
b0 B
b0 ,
b0 d
b0 .
b0 G
b0 `
b0 /
b0 ;
b0 _
b0 0
b0 9
b0 ^
b0 k"
b0 j"
b0 i"
b0 h"
b0 g"
b0 f"
b0 e"
b0 d"
b0 c"
b0 b"
b0 a"
b0 `"
b0 _"
b0 ^"
b0 ]"
b0 \"
b0 ["
b0 Z"
b0 Y"
b0 X"
b0 W"
b0 V"
b0 U"
b0 T"
b0 S"
b0 R"
b0 Q"
b0 P"
b0 O"
b0 N"
b0 M"
b0 L"
b1 2
b100110000000000000000000000000000000000000000000000000000000000000000000000000000000000000000000000001000010000000000000000000000000000000000000000000000000000000000000000000000000000000000000000000000000000000 -
b100110000000000000000000000000000000000000000000000000000000000000000000000000000000000000000000000001000010000000000000000000000000000000000000000000000000000000000000000000000000000000000000000000000000000000 ?
b10011 3
b0 4
1!
b1 #
#2
1"
#5
0!
#10
b1 Q
b1 Z
1e
b11111111111111111111111111111111 P
b1 I
b1 L
b1 D
b1 \
b10100000 F
b10 S
b10 ]
b10 J
b1 K
b1 C
b10 2
b1000000010000000100110000000000000000000000000000000000000000000000000000000000000001000000000000000000000000000000001000010000000000000000000000000000000000000000000000000000000000000000000000000000000000000000000000000000000 -
b1000000010000000100110000000000000000000000000000000000000000000000000000000000000001000000000000000000000000000000001000010000000000000000000000000000000000000000000000000000000000000000000000000000000000000000000000000000000 ?
b100000001000000010011 3
b1 4
b100000 ,
b100000 d
b100000 .
b100000 G
b100000 `
b1010101010101010101010101010101010 /
b1010101010101010101010101010101010 ;
b1010101010101010101010101010101010 _
1!
#11
b10 #
#15
0!
#20
b10 I"
b10 H"
b0 Q
b10 F"
b10 E"
b10 D"
b10 C"
b10 B"
b10 A"
b10 @"
b10 ?"
b10 >"
b10 ="
b10 <"
b10 ;"
b10 :"
b10 9"
b10 8"
b10 7"
b10 6"
b10 5"
b10 4"
b10 3"
b10 2"
b10 1"
b10 0"
b10 /"
b10 ."
b10 -"
b10 ,"
b10 +"
b10 *"
b10 )"
b10 ("
b10 '"
b11111111111111111111111111111110 P
b10 I
b10 L
b10 D
b10 \
b100000 F
b0 S
b0 Z
b0 ]
b100 J
b10 K
b10 C
b10100000 ,
b10100000 d
b10100000 .
b10100000 G
b10100000 `
b11 2
b10000000100000000100110000000000000000000000000000000000000000000000000000000000000010000000000000000000000000000000001000010000000000000000000000000000000000000000000000000000000000000000000000000000000000000000000000000000000 -
b10000000100000000100110000000000000000000000000000000000000000000000000000000000000010000000000000000000000000000000001000010000000000000000000000000000000000000000000000000000000000000000000000000000000000000000000000000000000 ?
b1000000010000000010011 3
b10 4
1!
#21
b11 #
#25
0!
#30
b0 I"
b0 H"
b11111111111111111111111111111101 P
b11 I
b11 L
b11 D
b11 \
b110 J
b11 K
b11 C
b10 K"
b10 J"
b0 F"
b0 E"
b0 D"
b0 C"
b0 B"
b0 A"
b0 @"
b0 ?"
b0 >"
b0 ="
b0 <"
b0 ;"
b0 :"
b0 9"
b0 8"
b0 7"
b0 6"
b0 5"
b0 4"
b0 3"
b0 2"
b0 1"
b0 0"
b0 /"
b0 ."
b0 -"
b0 ,"
b0 +"
b0 *"
b0 )"
b0 ("
b0 '"
b100 2
b11000000110000000100110000000000000000000000000000000000000000000000000000000000000011000000000000000000000000000000001000010000000000000000000000000000000000000000000000000000000000000000000000000000000000000000000000000000000 -
b11000000110000000100110000000000000000000000000000000000000000000000000000000000000011000000000000000000000000000000001000010000000000000000000000000000000000000000000000000000000000000000000000000000000000000000000000000000000 ?
b1100000011000000010011 3
b11 4
b10 L"
b100000 ,
b100000 d
b100000 .
b100000 G
b100000 `
1!
#31
b100 #
#35
0!
#40
b100 Q
b100 Z
b0 J"
b0 K"
b11111111111111111111111111111100 P
b100 I
b100 L
b100 D
b100 \
b1000 J
b100 K
b100 C
b0 L"
b101 2
b100000001000000000100110000000000000000000000000000000000000000000000000000000000000100000000000000000000000000000000001000010000000000000000000000000000000000000000000000000000000000000000000000000000000000000000000000000000000 -
b100000001000000000100110000000000000000000000000000000000000000000000000000000000000100000000000000000000000000000000001000010000000000000000000000000000000000000000000000000000000000000000000000000000000000000000000000000000000 ?
b10000000100000000010011 3
b100 4
1!
#41
b101 #
#45
0!
#50
b101 Q
b11111111111111111111111111111011 P
b101 I
b101 L
b101 D
b101 \
b101 Z
b1010 J
b101 K
b101 C
b110 2
b101000001010000000100110000000000000000000000000000000000000000000000000000000000000101000000000000000000000000000000001000010000000000000000000000000000000000000000000000000000000000000000000000000000000000000000000000000000000 -
b101000001010000000100110000000000000000000000000000000000000000000000000000000000000101000000000000000000000000000000001000010000000000000000000000000000000000000000000000000000000000000000000000000000000000000000000000000000000 ?
b10100000101000000010011 3
b101 4
1!
#51
b110 #
#55
0!
#60
b110100000 F
b110 S
b110 ]
b110 Q
b11111111111111111111111111111010 P
b110 I
b110 L
b110 D
b110 \
b110 Z
b1100 J
b110 K
b110 C
b111 2
b110000001100000000100110000000000000000000000000000000000000000000000000000000000000110000000000000000000000000000000001000010000000000000000000000000000000000000000000000000000000000000000000000000000000000000000000000000000000 -
b110000001100000000100110000000000000000000000000000000000000000000000000000000000000110000000000000000000000000000000001000010000000000000000000000000000000000000000000000000000000000000000000000000000000000000000000000000000000 ?
b11000000110000000010011 3
b110 4
1!
#61
b111 #
#65
0!
#70
b0 Q
b110 I"
b110 H"
b11111111111111111111111111111001 P
b111 I
b111 L
b111 D
b111 \
b111100000 F
b111 S
b0 Z
b111 ]
b1110 J
b111 K
b111 C
b110 F"
b110 E"
b110 D"
b110 C"
b110 B"
b110 A"
b110 @"
b110 ?"
b110 >"
b110 ="
b110 <"
b110 ;"
b110 :"
b110 9"
b110 8"
b110 7"
b110 6"
b110 5"
b110 4"
b110 3"
b110 2"
b110 1"
b110 0"
b110 /"
b110 ."
b110 -"
b110 ,"
b110 +"
b110 *"
b110 )"
b110 ("
b110 '"
b1000 2
b111000001110000000100110000000000000000000000000000000000000000000000000000000000000111000000000000000000000000000000001000010000000000000000000000000000000000000000000000000000000000000000000000000000000000000000000000000000000 -
b111000001110000000100110000000000000000000000000000000000000000000000000000000000000111000000000000000000000000000000001000010000000000000000000000000000000000000000000000000000000000000000000000000000000000000000000000000000000 ?
b11100000111000000010011 3
b111 4
b110100000 ,
b110100000 d
b110100000 .
b110100000 G
b110100000 `
1!
#71
b1000 #
#75
0!
#80
b1000 Q
b111 I"
b111 H"
b1000 Z
b111 F"
b111 E"
b111 D"
b111 C"
b111 B"
b111 A"
b111 @"
b111 ?"
b111 >"
b111 ="
b111 <"
b111 ;"
b111 :"
b111 9"
b111 8"
b111 7"
b111 6"
b111 5"
b111 4"
b111 3"
b111 2"
b111 1"
b111 0"
b111 /"
b111 ."
b111 -"
b111 ,"
b111 +"
b111 *"
b111 )"
b111 ("
b111 '"
b110 K"
b110 J"
b11111111111111111111111111111000 P
b1000 I
b1000 L
b1000 D
b1000 \
b10000100000 F
b10000 S
b10000 ]
b10000 J
b1000 K
b1000 C
b111100000 ,
b111100000 d
b111100000 .
b111100000 G
b111100000 `
b110 L"
b1001 2
b1000000000000000000100110000000000000000000000000000000000000000000000000000000000001000000000000000000000000000000000001000010000000000000000000000000000000000000000000000000000000000000000000000000000000000000000000000000000000 -
b1000000000000000000100110000000000000000000000000000000000000000000000000000000000001000000000000000000000000000000000001000010000000000000000000000000000000000000000000000000000000000000000000000000000000000000000000000000000000 ?
b100000000000000000010011 3
b1000 4
1!
#81
b1001 #
#85
0!
#90
b1001 Q
b1001 Z
b10000 I"
b10000 H"
b11111111111111111111111111110111 P
b1001 I
b1001 L
b1001 D
b1001 \
b1001000000000100000 F
b1001000000000 S
b1001000000000 ]
b10010 J
b1001 K
b1001 C
b111 J"
b111 K"
b10000 F"
b10000 E"
b10000 D"
b10000 C"
b10000 B"
b10000 A"
b10000 @"
b10000 ?"
b10000 >"
b10000 ="
b10000 <"
b10000 ;"
b10000 :"
b10000 9"
b10000 8"
b10000 7"
b10000 6"
b10000 5"
b10000 4"
b10000 3"
b10000 2"
b10000 1"
b10000 0"
b10000 /"
b10000 ."
b10000 -"
b10000 ,"
b10000 +"
b10000 *"
b10000 )"
b10000 ("
b10000 '"
b1010 2
b1001000000010000000100110000000000000000000000000000000000000000000000000000000000001001000000000000000000000000000000001000010000000000000000000000000000000000000000000000000000000000000000000000000000000000000000000000000000000 -
b1001000000010000000100110000000000000000000000000000000000000000000000000000000000001001000000000000000000000000000000001000010000000000000000000000000000000000000000000000000000000000000000000000000000000000000000000000000000000 ?
b100100000001000000010011 3
b1001 4
b111 L"
b10000100000 ,
b10000100000 d
b10000100000 .
b10000100000 G
b10000100000 `
1!
#91
b1010 #
#95
0!
#100
b1001000000000 I"
b1001000000000 H"
b0 Q
b1001000000000 F"
b1001000000000 E"
b1001000000000 D"
b1001000000000 C"
b1001000000000 B"
b1001000000000 A"
b1001000000000 @"
b1001000000000 ?"
b1001000000000 >"
b1001000000000 ="
b1001000000000 <"
b1001000000000 ;"
b1001000000000 :"
b1001000000000 9"
b1001000000000 8"
b1001000000000 7"
b1001000000000 6"
b1001000000000 5"
b1001000000000 4"
b1001000000000 3"
b1001000000000 2"
b1001000000000 1"
b1001000000000 0"
b1001000000000 /"
b1001000000000 ."
b1001000000000 -"
b1001000000000 ,"
b1001000000000 +"
b1001000000000 *"
b1001000000000 )"
b1001000000000 ("
b1001000000000 '"
b10000 K"
b10000 J"
b11111111111111111111111111110110 P
b1010 I
b1010 L
b1010 D
b1010 \
b100000 F
b0 S
b0 Z
b0 ]
b10100 J
b1010 K
b1010 C
b1001000000000100000 ,
b1001000000000100000 d
b1001000000000100000 .
b1001000000000100000 G
b1001000000000100000 `
b10000 L"
b1011 2
b1010000000100000000100110000000000000000000000000000000000000000000000000000000000001010000000000000000000000000000000001000010000000000000000000000000000000000000000000000000000000000000000000000000000000000000000000000000000000 -
b1010000000100000000100110000000000000000000000000000000000000000000000000000000000001010000000000000000000000000000000001000010000000000000000000000000000000000000000000000000000000000000000000000000000000000000000000000000000000 ?
b101000000010000000010011 3
b1010 4
1!
#101
b1011 #
#105
0!
#110
b0 I"
b0 H"
b11111111111111111111111111110101 P
b1011 I
b1011 L
b1011 D
b1011 \
b10110 J
b1011 K
b1011 C
b1001000000000 J"
b1001000000000 K"
b0 F"
b0 E"
b0 D"
b0 C"
b0 B"
b0 A"
b0 @"
b0 ?"
b0 >"
b0 ="
b0 <"
b0 ;"
b0 :"
b0 9"
b0 8"
b0 7"
b0 6"
b0 5"
b0 4"
b0 3"
b0 2"
b0 1"
b0 0"
b0 /"
b0 ."
b0 -"
b0 ,"
b0 +"
b0 *"
b0 )"
b0 ("
b0 '"
b1100 2
b1011000000110000000100110000000000000000000000000000000000000000000000000000000000001011000000000000000000000000000000001000010000000000000000000000000000000000000000000000000000000000000000000000000000000000000000000000000000000 -
b1011000000110000000100110000000000000000000000000000000000000000000000000000000000001011000000000000000000000000000000001000010000000000000000000000000000000000000000000000000000000000000000000000000000000000000000000000000000000 ?
b101100000011000000010011 3
b1011 4
b1001000000000 L"
b100000 ,
b100000 d
b100000 .
b100000 G
b100000 `
1!
#111
b1100 #
#115
0!
#120
b1100 Q
b1100 Z
b0 K"
b0 J"
b11111111111111111111111111110100 P
b1100 I
b1100 L
b1100 D
b1100 \
b11000 J
b1100 K
b1100 C
b0 L"
b1101 2
b1100000001000000000100110000000000000000000000000000000000000000000000000000000000001100000000000000000000000000000000001000010000000000000000000000000000000000000000000000000000000000000000000000000000000000000000000000000000000 -
b1100000001000000000100110000000000000000000000000000000000000000000000000000000000001100000000000000000000000000000000001000010000000000000000000000000000000000000000000000000000000000000000000000000000000000000000000000000000000 ?
b110000000100000000010011 3
b1100 4
1!
#121
b1101 #
#125
0!
#130
b1101 Q
b11111111111111111111111111110011 P
b1101 I
b1101 L
b1101 D
b1101 \
b1101 Z
b11010 J
b1101 K
b1101 C
b1110 2
b1101000001010000000100110000000000000000000000000000000000000000000000000000000000001101000000000000000000000000000000001000010000000000000000000000000000000000000000000000000000000000000000000000000000000000000000000000000000000 -
b1101000001010000000100110000000000000000000000000000000000000000000000000000000000001101000000000000000000000000000000001000010000000000000000000000000000000000000000000000000000000000000000000000000000000000000000000000000000000 ?
b110100000101000000010011 3
b1101 4
1!
#131
b1110 #
#135
0!
#140
b1110100000 F
b1110 S
b1110 ]
b1110 Q
b11111111111111111111111111110010 P
b1110 I
b1110 L
b1110 D
b1110 \
b1110 Z
b11100 J
b1110 K
b1110 C
b1111 2
b1110000001100000000100110000000000000000000000000000000000000000000000000000000000001110000000000000000000000000000000001000010000000000000000000000000000000000000000000000000000000000000000000000000000000000000000000000000000000 -
b1110000001100000000100110000000000000000000000000000000000000000000000000000000000001110000000000000000000000000000000001000010000000000000000000000000000000000000000000000000000000000000000000000000000000000000000000000000000000 ?
b111000000110000000010011 3
b1110 4
1!
#141
b1111 #
#145
0!
#150
b0 Q
b1110 I"
b1110 H"
b11111111111111111111111111110001 P
b1111 I
b1111 L
b1111 D
b1111 \
b1111100000 F
b1111 S
b0 Z
b1111 ]
b11110 J
b1111 K
b1111 C
b1110 F"
b1110 E"
b1110 D"
b1110 C"
b1110 B"
b1110 A"
b1110 @"
b1110 ?"
b1110 >"
b1110 ="
b1110 <"
b1110 ;"
b1110 :"
b1110 9"
b1110 8"
b1110 7"
b1110 6"
b1110 5"
b1110 4"
b1110 3"
b1110 2"
b1110 1"
b1110 0"
b1110 /"
b1110 ."
b1110 -"
b1110 ,"
b1110 +"
b1110 *"
b1110 )"
b1110 ("
b1110 '"
b10000 2
b1111000001110000000100110000000000000000000000000000000000000000000000000000000000001111000000000000000000000000000000001000010000000000000000000000000000000000000000000000000000000000000000000000000000000000000000000000000000000 -
b1111000001110000000100110000000000000000000000000000000000000000000000000000000000001111000000000000000000000000000000001000010000000000000000000000000000000000000000000000000000000000000000000000000000000000000000000000000000000 ?
b111100000111000000010011 3
b1111 4
b1110100000 ,
b1110100000 d
b1110100000 .
b1110100000 G
b1110100000 `
1!
#151
b10000 #
#155
0!
