core_pipe/isaex/mkTb_vw.vcd
$date
	Thu Oct 27 01:56:18 2022
$end
$version
	Icarus Verilog
$end
$timescale
	1s
$end
$scope module main $end
$var reg 1 ! CLK $end
$var reg 1 " RST $end
$var reg 32 # cycle [31:0] $end
$var reg 1 $ do_cycles $end
$var reg 1 % do_fsdb $end
$var reg 1 & do_fst $end
$var reg 1 ' do_vcd $end
$var reg 2048 ( filename [2048:1] $end
$scope module top $end
$var wire 1 ! CLK $end
$var wire 1 " RST_N $end
$var wire 1 ) \isa_ex_itf$EN_alu_set $end
$var wire 1 * \reg_itf$EN_reg_wr_back $end
$var wire 12 + \reg_itf$reg_rd_out_id_to_reg [11:0] $end
$var wire 38 , \reg_itf$reg_wr_back_alu_out_to_reg [37:0] $end
$var wire 237 - \isa_ex_itf$alu_set_alu_in [236:0] $end
$var wire 38 . \isa_ex_itf$alu_out_to_reg [37:0] $end
$var wire 98 / \isa_ex_itf$alu_out_to_mem [97:0] $end
$var wire 1 0 \counter$EN $end
$var wire 10 1 \counter$D_IN [9:0] $end
$var wire 32 2 alu_in_instr__h238 [31:0] $end
$var reg 10 3 counter [9:0] $end
$scope module isa_ex_itf $end
$var wire 1 ! CLK $end
$var wire 1 ) EN_alu_set $end
$var wire 1 4 RDY_alu_out_to_mem $end
$var wire 1 5 RDY_alu_out_to_reg $end
$var wire 1 6 RDY_alu_set $end
$var wire 1 " RST_N $end
$var wire 98 7 alu_out_to_mem [97:0] $end
$var wire 1 8 \alu_out_to_memx$EN $end
$var wire 1 9 \alu_out_to_regx$EN $end
$var wire 237 : alu_set_alu_in [236:0] $end
$var wire 12 ; alu_set_alu_in_BITS_236_TO_225__q1 [11:0] $end
$var wire 32 < alu_set_alu_in_BITS_172_TO_141__q2 [31:0] $end
$var wire 32 = alu_set_alu_in_BITS_140_TO_109__q3 [31:0] $end
$var wire 38 > \alu_out_to_regx$D_IN [37:0] $end
$var wire 38 ? alu_out_to_reg [37:0] $end
$var wire 98 @ \alu_out_to_memx$D_IN [97:0] $end
$var wire 32 A alu_inx_wget_BITS_172_TO_141_PLUS_SEXT_alu_inx_ETC___d10 [31:0] $end
$var wire 32 B SEXT_alu_inx_wget_BITS_236_TO_225____d9 [31:0] $end
$var wire 64 C SEXT_alu_inx_wget_BITS_172_TO_141____d40 [63:0] $end
$var wire 128 D SEXT_alu_inx_wget_BITS_172_TO_141__0_MUL_SEXT__ETC___d43 [127:0] $end
$var wire 64 E SEXT_alu_inx_wget_BITS_140_TO_109_1___d42 [63:0] $end
$var wire 128 F SEXT_NEG_alu_inx_wget_BITS_172_TO_141_8_9_MUL__ETC___d50 [127:0] $end
$var wire 32 G NEG_alu_set_alu_in_BITS_172_TO_141__q4 [31:0] $end
$var wire 32 H IF_alu_inx_wget_BITS_236_TO_230_8_EQ_0b1_9_THE_ETC___d80 [31:0] $end
$var reg 32 I CASE_alu_set_alu_in_BITS_211_TO_205_0b10011_IF_ETC__q9 [31:0] $end
$var reg 1 J CASE_alu_set_alu_in_BITS_211_TO_205_0b10011_al_ETC__q10 $end
$var reg 32 K CASE_alu_set_alu_in_BITS_211_TO_205_0b11_alu_i_ETC__q8 [31:0] $end
$var reg 5 L CASE_alu_set_alu_in_BITS_211_TO_205_0b11_alu_s_ETC__q11 [4:0] $end
$var reg 32 M CASE_alu_set_alu_in_BITS_219_TO_217_0b0_CASE_a_ETC__q7 [31:0] $end
$var reg 32 N CASE_alu_set_alu_in_BITS_219_TO_217_0b0_SEXT_a_ETC__q5 [31:0] $end
$var reg 32 O CASE_alu_set_alu_in_BITS_236_TO_230_0b0_alu_se_ETC__q6 [31:0] $end
$var reg 32 P IF_alu_inx_wget_BITS_219_TO_217_EQ_0b0_THEN_al_ETC___d36 [31:0] $end
$var reg 98 Q alu_out_to_memx [97:0] $end
$var reg 38 R alu_out_to_regx [37:0] $end
$upscope $end
$scope module reg_itf $end
$var wire 1 ! CLK $end
$var wire 1 * EN_reg_wr_back $end
$var wire 1 S RDY_reg_rd_out $end
$var wire 1 T RDY_reg_wr_back $end
$var wire 1 " RST_N $end
$var wire 12 U reg_rd_out_id_to_reg [11:0] $end
$var wire 38 V reg_wr_back_alu_out_to_reg [37:0] $end
$var wire 1 W \regs_0$EN $end
$var wire 1 X \regs_1$EN $end
$var wire 1 Y \regs_10$EN $end
$var wire 1 Z \regs_11$EN $end
$var wire 1 [ \regs_12$EN $end
$var wire 1 \ \regs_13$EN $end
$var wire 1 ] \regs_14$EN $end
$var wire 1 ^ \regs_15$EN $end
$var wire 1 _ \regs_16$EN $end
$var wire 1 ` \regs_17$EN $end
$var wire 1 a \regs_18$EN $end
$var wire 1 b \regs_19$EN $end
$var wire 1 c \regs_2$EN $end
$var wire 1 d \regs_20$EN $end
$var wire 1 e \regs_21$EN $end
$var wire 1 f \regs_22$EN $end
$var wire 1 g \regs_23$EN $end
$var wire 1 h \regs_24$EN $end
$var wire 1 i \regs_25$EN $end
$var wire 1 j \regs_26$EN $end
$var wire 1 k \regs_27$EN $end
$var wire 1 l \regs_28$EN $end
$var wire 1 m \regs_29$EN $end
$var wire 1 n \regs_3$EN $end
$var wire 1 o \regs_30$EN $end
$var wire 1 p \regs_31$EN $end
$var wire 1 q \regs_4$EN $end
$var wire 1 r \regs_5$EN $end
$var wire 1 s \regs_6$EN $end
$var wire 1 t \regs_7$EN $end
$var wire 1 u \regs_8$EN $end
$var wire 1 v \regs_9$EN $end
$var wire 32 w \regs_9$D_IN [31:0] $end
$var wire 32 x \regs_8$D_IN [31:0] $end
$var wire 32 y \regs_7$D_IN [31:0] $end
$var wire 32 z \regs_6$D_IN [31:0] $end
$var wire 32 { \regs_5$D_IN [31:0] $end
$var wire 32 | \regs_4$D_IN [31:0] $end
$var wire 32 } \regs_31$D_IN [31:0] $end
$var wire 32 ~ \regs_30$D_IN [31:0] $end
$var wire 32 !" \regs_3$D_IN [31:0] $end
$var wire 32 "" \regs_29$D_IN [31:0] $end
$var wire 32 #" \regs_28$D_IN [31:0] $end
$var wire 32 $" \regs_27$D_IN [31:0] $end
$var wire 32 %" \regs_26$D_IN [31:0] $end
$var wire 32 &" \regs_25$D_IN [31:0] $end
$var wire 32 '" \regs_24$D_IN [31:0] $end
$var wire 32 (" \regs_23$D_IN [31:0] $end
$var wire 32 )" \regs_22$D_IN [31:0] $end
$var wire 32 *" \regs_21$D_IN [31:0] $end
$var wire 32 +" \regs_20$D_IN [31:0] $end
$var wire 32 ," \regs_2$D_IN [31:0] $end
$var wire 32 -" \regs_19$D_IN [31:0] $end
$var wire 32 ." \regs_18$D_IN [31:0] $end
$var wire 32 /" \regs_17$D_IN [31:0] $end
$var wire 32 0" \regs_16$D_IN [31:0] $end
$var wire 32 1" \regs_15$D_IN [31:0] $end
$var wire 32 2" \regs_14$D_IN [31:0] $end
$var wire 32 3" \regs_13$D_IN [31:0] $end
$var wire 32 4" \regs_12$D_IN [31:0] $end
$var wire 32 5" \regs_11$D_IN [31:0] $end
$var wire 32 6" \regs_10$D_IN [31:0] $end
$var wire 32 7" \regs_1$D_IN [31:0] $end
$var wire 32 8" \regs_0$D_IN [31:0] $end
$var wire 64 9" reg_rd_out [63:0] $end
$var wire 32 :" IF_reg_rd_out_id_to_reg_BITS_9_TO_5_9_EQ_reg_w_ETC___d111 [31:0] $end
$var wire 32 ;" IF_reg_rd_out_id_to_reg_BITS_4_TO_0_14_EQ_reg__ETC___d118 [31:0] $end
$var reg 32 <" SEL_ARR_regs_0_7_regs_1_8_regs_2_9_regs_3_0_re_ETC___d110 [31:0] $end
$var reg 32 =" SEL_ARR_regs_0_7_regs_1_8_regs_2_9_regs_3_0_re_ETC___d117 [31:0] $end
$var reg 32 >" regs_0 [31:0] $end
$var reg 32 ?" regs_1 [31:0] $end
$var reg 32 @" regs_10 [31:0] $end
$var reg 32 A" regs_11 [31:0] $end
$var reg 32 B" regs_12 [31:0] $end
$var reg 32 C" regs_13 [31:0] $end
$var reg 32 D" regs_14 [31:0] $end
$var reg 32 E" regs_15 [31:0] $end
$var reg 32 F" regs_16 [31:0] $end
$var reg 32 G" regs_17 [31:0] $end
$var reg 32 H" regs_18 [31:0] $end
$var reg 32 I" regs_19 [31:0] $end
$var reg 32 J" regs_2 [31:0] $end
$var reg 32 K" regs_20 [31:0] $end
$var reg 32 L" regs_21 [31:0] $end
$var reg 32 M" regs_22 [31:0] $end
$var reg 32 N" regs_23 [31:0] $end
$var reg 32 O" regs_24 [31:0] $end
$var reg 32 P" regs_25 [31:0] $end
$var reg 32 Q" regs_26 [31:0] $end
$var reg 32 R" regs_27 [31:0] $end
$var reg 32 S" regs_28 [31:0] $end
$var reg 32 T" regs_29 [31:0] $end
$var reg 32 U" regs_3 [31:0] $end
$var reg 32 V" regs_30 [31:0] $end
$var reg 32 W" regs_31 [31:0] $end
$var reg 32 X" regs_4 [31:0] $end
$var reg 32 Y" regs_5 [31:0] $end
$var reg 32 Z" regs_6 [31:0] $end
$var reg 32 [" regs_7 [31:0] $end
$var reg 32 \" regs_8 [31:0] $end
$var reg 32 ]" regs_9 [31:0] $end
$upscope $end
$upscope $end
$upscope $end
$enddefinitions $end
#0
$dumpvars
b10101010101010101010101010101010 ]"
b10101010101010101010101010101010 \"
b10101010101010101010101010101010 ["
b10101010101010101010101010101010 Z"
b10101010101010101010101010101010 Y"
b10101010101010101010101010101010 X"
b10101010101010101010101010101010 W"
b10101010101010101010101010101010 V"
b10101010101010101010101010101010 U"
b10101010101010101010101010101010 T"
b10101010101010101010101010101010 S"
b10101010101010101010101010101010 R"
b10101010101010101010101010101010 Q"
b10101010101010101010101010101010 P"
b10101010101010101010101010101010 O"
b10101010101010101010101010101010 N"
b10101010101010101010101010101010 M"
b10101010101010101010101010101010 L"
b10101010101010101010101010101010 K"
b10101010101010101010101010101010 J"
b10101010101010101010101010101010 I"
b10101010101010101010101010101010 H"
b10101010101010101010101010101010 G"
b10101010101010101010101010101010 F"
b10101010101010101010101010101010 E"
b10101010101010101010101010101010 D"
b10101010101010101010101010101010 C"
b10101010101010101010101010101010 B"
b10101010101010101010101010101010 A"
b10101010101010101010101010101010 @"
b10101010101010101010101010101010 ?"
b10101010101010101010101010101010 >"
b10101010101010101010101010101010 ="
b10101010101010101010101010101010 <"
b10101010101010101010101010101010 ;"
b10101010101010101010101010101010 :"
b0 9"
b10101010101010101010101010101010 8"
b10101010101010101010101010101010 7"
b10101010101010101010101010101010 6"
b10101010101010101010101010101010 5"
b10101010101010101010101010101010 4"
b10101010101010101010101010101010 3"
b10101010101010101010101010101010 2"
b10101010101010101010101010101010 1"
b10101010101010101010101010101010 0"
b10101010101010101010101010101010 /"
b10101010101010101010101010101010 ."
b10101010101010101010101010101010 -"
b10101010101010101010101010101010 ,"
b10101010101010101010101010101010 +"
b10101010101010101010101010101010 *"
b10101010101010101010101010101010 )"
b10101010101010101010101010101010 ("
b10101010101010101010101010101010 '"
b10101010101010101010101010101010 &"
b10101010101010101010101010101010 %"
b10101010101010101010101010101010 $"
b10101010101010101010101010101010 #"
b10101010101010101010101010101010 ""
b10101010101010101010101010101010 !"
b10101010101010101010101010101010 ~
b10101010101010101010101010101010 }
b10101010101010101010101010101010 |
b10101010101010101010101010101010 {
b10101010101010101010101010101010 z
b10101010101010101010101010101010 y
b10101010101010101010101010101010 x
b10101010101010101010101010101010 w
0v
0u
0t
0s
0r
0q
0p
0o
0n
0m
0l
0k
0j
0i
0h
0g
0f
0e
0d
0c
0b
0a
0`
0_
0^
0]
0\
0[
0Z
1Y
0X
0W
b10101010101010101010101010101010101010 V
b0 U
1T
1S
b10101010101010101010101010101010101010 R
b10101010101010101010101010101010101010101010101010101010101010101010101010101010101010101010101010 Q
b1 P
b0 O
b0 N
b1 M
b0 L
b0 K
1J
b1 I
b1 H
b101010110 G
b0 F
b0 E
b0 D
b1111111111111111111111111111111111111111111111111111111010101010 C
b1010101010 B
b101010100 A
b0 @
b10101010101010101010101010101010101010 ?
b1100000 >
b0 =
b11111111111111111111111010101010 <
b1010101010 ;
b1010101010000000100000000100110000000000000000000000000000000011111111111111111111111010101010000000000000000000000000000000001000010000000000000000000000000000000000000000000000000000000000000000000000000000000000000000000000000000000 :
19
18
b10101010101010101010101010101010101010101010101010101010101010101010101010101010101010101010101010 7
16
15
14
b1010101010 3
b101010101000000010000000010011 2
b1010101011 1
10
b10101010101010101010101010101010101010101010101010101010101010101010101010101010101010101010101010 /
b10101010101010101010101010101010101010 .
b1010101010000000100000000100110000000000000000000000000000000011111111111111111111111010101010000000000000000000000000000000001000010000000000000000000000000000000000000000000000000000000000000000000000000000000000000000000000000000000 -
b10101010101010101010101010101010101010 ,
b0 +
1*
1)
b110010001110101011011010111000000101110011101100110001101100100 (
1'
0&
0%
0$
b0 #
0"
x!
$end
#1
b0 H
0Y
b0 :"
b0 ;"
b100000 >
b0 I
b0 P
b0 M
b0 8"
b0 7"
b0 6"
b0 5"
b0 4"
b0 3"
b0 2"
b0 1"
b0 0"
b0 /"
b0 ."
b0 -"
b0 ,"
b0 +"
b0 *"
b0 )"
b0 ("
b0 '"
b0 &"
b0 %"
b0 $"
b0 #"
b0 ""
b0 !"
b0 ~
b0 }
b0 |
b0 {
b0 z
b0 y
b0 x
b0 w
b0 <"
b0 ="
b0 G
b0 C
b0 <
b0 O
b0 A
b0 B
b0 ;
b0 ,
b0 V
b0 .
b0 ?
b0 R
b0 /
b0 7
b0 Q
b0 ]"
b0 \"
b0 ["
b0 Z"
b0 Y"
b0 X"
b0 W"
b0 V"
b0 U"
b0 T"
b0 S"
b0 R"
b0 Q"
b0 P"
b0 O"
b0 N"
b0 M"
b0 L"
b0 K"
b0 J"
b0 I"
b0 H"
b0 G"
b0 F"
b0 E"
b0 D"
b0 C"
b0 B"
b0 A"
b0 @"
b0 ?"
b0 >"
b1 1
b100110000000000000000000000000000000000000000000000000000000000000000000000000000000000000000000000001000010000000000000000000000000000000000000000000000000000000000000000000000000000000000000000000000000000000 -
b100110000000000000000000000000000000000000000000000000000000000000000000000000000000000000000000000001000010000000000000000000000000000000000000000000000000000000000000000000000000000000000000000000000000000000 :
b10011 2
b0 3
1!
b1 #
#2
1"
#5
0!
#10
b1 H
b1 M
1W
b11111111111111111111111111111111 G
b1 C
b1 <
b1 O
b10100000 >
b10 I
b10 P
b10 A
b1 B
b1 ;
b10 1
b1000000010000000100110000000000000000000000000000000000000000000000000000000000000001000000000000000000000000000000001000010000000000000000000000000000000000000000000000000000000000000000000000000000000000000000000000000000000 -
b1000000010000000100110000000000000000000000000000000000000000000000000000000000000001000000000000000000000000000000001000010000000000000000000000000000000000000000000000000000000000000000000000000000000000000000000000000000000 :
b100000001000000010011 2
b1 3
b100000 ,
b100000 V
b100000 .
b100000 ?
b100000 R
1!
#11
b10 #
#15
0!
#20
b10 ;"
b10 :"
b0 H
b10 8"
b10 7"
b10 6"
b10 5"
b10 4"
b10 3"
b10 2"
b10 1"
b10 0"
b10 /"
b10 ."
b10 -"
b10 ,"
b10 +"
b10 *"
b10 )"
b10 ("
b10 '"
b10 &"
b10 %"
b10 $"
b10 #"
b10 ""
b10 !"
b10 ~
b10 }
b10 |
b10 {
b10 z
b10 y
b10 x
b10 w
b11111111111111111111111111111110 G
b10 C
b10 <
b10 O
b100000 >
b0 I
b0 M
b0 P
b100 A
b10 B
b10 ;
b10100000 ,
b10100000 V
b10100000 .
b10100000 ?
b10100000 R
b11 1
b10000000100000000100110000000000000000000000000000000000000000000000000000000000000010000000000000000000000000000000001000010000000000000000000000000000000000000000000000000000000000000000000000000000000000000000000000000000000 -
b10000000100000000100110000000000000000000000000000000000000000000000000000000000000010000000000000000000000000000000001000010000000000000000000000000000000000000000000000000000000000000000000000000000000000000000000000000000000 :
b1000000010000000010011 2
b10 3
1!
#21
b11 #
#25
0!
#30
b0 ;"
b0 :"
b11111111111111111111111111111101 G
b11 C
b11 <
b11 O
b110 A
b11 B
b11 ;
b10 ="
b10 <"
b0 8"
b0 7"
b0 6"
b0 5"
b0 4"
b0 3"
b0 2"
b0 1"
b0 0"
b0 /"
b0 ."
b0 -"
b0 ,"
b0 +"
b0 *"
b0 )"
b0 ("
b0 '"
b0 &"
b0 %"
b0 $"
b0 #"
b0 ""
b0 !"
b0 ~
b0 }
b0 |
b0 {
b0 z
b0 y
b0 x
b0 w
b100 1
b11000000110000000100110000000000000000000000000000000000000000000000000000000000000011000000000000000000000000000000001000010000000000000000000000000000000000000000000000000000000000000000000000000000000000000000000000000000000 -
b11000000110000000100110000000000000000000000000000000000000000000000000000000000000011000000000000000000000000000000001000010000000000000000000000000000000000000000000000000000000000000000000000000000000000000000000000000000000 :
b1100000011000000010011 2
b11 3
b10 >"
b100000 ,
b100000 V
b100000 .
b100000 ?
b100000 R
1!
#31
b100 #
#35
0!
#40
b100 H
b100 M
b0 <"
b0 ="
b11111111111111111111111111111100 G
b100 C
b100 <
b100 O
b1000 A
b100 B
b100 ;
b0 >"
b101 1
b100000001000000000100110000000000000000000000000000000000000000000000000000000000000100000000000000000000000000000000001000010000000000000000000000000000000000000000000000000000000000000000000000000000000000000000000000000000000 -
b100000001000000000100110000000000000000000000000000000000000000000000000000000000000100000000000000000000000000000000001000010000000000000000000000000000000000000000000000000000000000000000000000000000000000000000000000000000000 :
b10000000100000000010011 2
b100 3
1!
#41
b101 #
#45
0!
#50
b101 H
b11111111111111111111111111111011 G
b101 C
b101 <
b101 O
b101 M
b1010 A
b101 B
b101 ;
b110 1
b101000001010000000100110000000000000000000000000000000000000000000000000000000000000101000000000000000000000000000000001000010000000000000000000000000000000000000000000000000000000000000000000000000000000000000000000000000000000 -
b101000001010000000100110000000000000000000000000000000000000000000000000000000000000101000000000000000000000000000000001000010000000000000000000000000000000000000000000000000000000000000000000000000000000000000000000000000000000 :
b10100000101000000010011 2
b101 3
1!
#51
b110 #
#55
0!
#60
b110100000 >
b110 I
b110 P
b110 H
b11111111111111111111111111111010 G
b110 C
b110 <
b110 O
b110 M
b1100 A
b110 B
b110 ;
b111 1
b110000001100000000100110000000000000000000000000000000000000000000000000000000000000110000000000000000000000000000000001000010000000000000000000000000000000000000000000000000000000000000000000000000000000000000000000000000000000 -
b110000001100000000100110000000000000000000000000000000000000000000000000000000000000110000000000000000000000000000000001000010000000000000000000000000000000000000000000000000000000000000000000000000000000000000000000000000000000 :
b11000000110000000010011 2
b110 3
1!
#61
b111 #
#65
0!
#70
b0 H
b110 ;"
b110 :"
b11111111111111111111111111111001 G
b111 C
b111 <
b111 O
b111100000 >
b111 I
b0 M
b111 P
b1110 A
b111 B
b111 ;
b110 8"
b110 7"
b110 6"
b110 5"
b110 4"
b110 3"
b110 2"
b110 1"
b110 0"
b110 /"
b110 ."
b110 -"
b110 ,"
b110 +"
b110 *"
b110 )"
b110 ("
b110 '"
b110 &"
b110 %"
b110 $"
b110 #"
b110 ""
b110 !"
b110 ~
b110 }
b110 |
b110 {
b110 z
b110 y
b110 x
b110 w
b1000 1
b111000001110000000100110000000000000000000000000000000000000000000000000000000000000111000000000000000000000000000000001000010000000000000000000000000000000000000000000000000000000000000000000000000000000000000000000000000000000 -
b111000001110000000100110000000000000000000000000000000000000000000000000000000000000111000000000000000000000000000000001000010000000000000000000000000000000000000000000000000000000000000000000000000000000000000000000000000000000 :
b11100000111000000010011 2
b111 3
b110100000 ,
b110100000 V
b110100000 .
b110100000 ?
b110100000 R
1!
#71
b1000 #
#75
0!
#80
b1000 H
b111 ;"
b111 :"
b1000 M
b111 8"
b111 7"
b111 6"
b111 5"
b111 4"
b111 3"
b111 2"
b111 1"
b111 0"
b111 /"
b111 ."
b111 -"
b111 ,"
b111 +"
b111 *"
b111 )"
b111 ("
b111 '"
b111 &"
b111 %"
b111 $"
b111 #"
b111 ""
b111 !"
b111 ~
b111 }
b111 |
b111 {
b111 z
b111 y
b111 x
b111 w
b110 ="
b110 <"
b11111111111111111111111111111000 G
b1000 C
b1000 <
b1000 O
b10000100000 >
b10000 I
b10000 P
b10000 A
b1000 B
b1000 ;
b111100000 ,
b111100000 V
b111100000 .
b111100000 ?
b111100000 R
b110 >"
b1001 1
b1000000000000000000100110000000000000000000000000000000000000000000000000000000000001000000000000000000000000000000000001000010000000000000000000000000000000000000000000000000000000000000000000000000000000000000000000000000000000 -
b1000000000000000000100110000000000000000000000000000000000000000000000000000000000001000000000000000000000000000000000001000010000000000000000000000000000000000000000000000000000000000000000000000000000000000000000000000000000000 :
b100000000000000000010011 2
b1000 3
1!
#81
b1001 #
#85
0!
#90
b1001 H
b1001 M
b10000 ;"
b10000 :"
b11111111111111111111111111110111 G
b1001 C
b1001 <
b1001 O
b1001000000000100000 >
b1001000000000 I
b1001000000000 P
b10010 A
b1001 B
b1001 ;
b111 <"
b111 ="
b10000 8"
b10000 7"
b10000 6"
b10000 5"
b10000 4"
b10000 3"
b10000 2"
b10000 1"
b10000 0"
b10000 /"
b10000 ."
b10000 -"
b10000 ,"
b10000 +"
b10000 *"
b10000 )"
b10000 ("
b10000 '"
b10000 &"
b10000 %"
b10000 $"
b10000 #"
b10000 ""
b10000 !"
b10000 ~
b10000 }
b10000 |
b10000 {
b10000 z
b10000 y
b10000 x
b10000 w
b1010 1
b1001000000010000000100110000000000000000000000000000000000000000000000000000000000001001000000000000000000000000000000001000010000000000000000000000000000000000000000000000000000000000000000000000000000000000000000000000000000000 -
b1001000000010000000100110000000000000000000000000000000000000000000000000000000000001001000000000000000000000000000000001000010000000000000000000000000000000000000000000000000000000000000000000000000000000000000000000000000000000 :
b100100000001000000010011 2
b1001 3
b111 >"
b10000100000 ,
b10000100000 V
b10000100000 .
b10000100000 ?
b10000100000 R
1!
#91
b1010 #
#95
0!
#100
b1001000000000 ;"
b1001000000000 :"
b0 H
b1001000000000 8"
b1001000000000 7"
b1001000000000 6"
b1001000000000 5"
b1001000000000 4"
b1001000000000 3"
b1001000000000 2"
b1001000000000 1"
b1001000000000 0"
b1001000000000 /"
b1001000000000 ."
b1001000000000 -"
b1001000000000 ,"
b1001000000000 +"
b1001000000000 *"
b1001000000000 )"
b1001000000000 ("
b1001000000000 '"
b1001000000000 &"
b1001000000000 %"
b1001000000000 $"
b1001000000000 #"
b1001000000000 ""
b1001000000000 !"
b1001000000000 ~
b1001000000000 }
b1001000000000 |
b1001000000000 {
b1001000000000 z
b1001000000000 y
b1001000000000 x
b1001000000000 w
b10000 ="
b10000 <"
b11111111111111111111111111110110 G
b1010 C
b1010 <
b1010 O
b100000 >
b0 I
b0 M
b0 P
b10100 A
b1010 B
b1010 ;
b1001000000000100000 ,
b1001000000000100000 V
b1001000000000100000 .
b1001000000000100000 ?
b1001000000000100000 R
b10000 >"
b1011 1
b1010000000100000000100110000000000000000000000000000000000000000000000000000000000001010000000000000000000000000000000001000010000000000000000000000000000000000000000000000000000000000000000000000000000000000000000000000000000000 -
b1010000000100000000100110000000000000000000000000000000000000000000000000000000000001010000000000000000000000000000000001000010000000000000000000000000000000000000000000000000000000000000000000000000000000000000000000000000000000 :
b101000000010000000010011 2
b1010 3
1!
#101
b1011 #
#105
0!
#110
b0 ;"
b0 :"
b11111111111111111111111111110101 G
b1011 C
b1011 <
b1011 O
b10110 A
b1011 B
b1011 ;
b1001000000000 <"
b1001000000000 ="
b0 8"
b0 7"
b0 6"
b0 5"
b0 4"
b0 3"
b0 2"
b0 1"
b0 0"
b0 /"
b0 ."
b0 -"
b0 ,"
b0 +"
b0 *"
b0 )"
b0 ("
b0 '"
b0 &"
b0 %"
b0 $"
b0 #"
b0 ""
b0 !"
b0 ~
b0 }
b0 |
b0 {
b0 z
b0 y
b0 x
b0 w
b1100 1
b1011000000110000000100110000000000000000000000000000000000000000000000000000000000001011000000000000000000000000000000001000010000000000000000000000000000000000000000000000000000000000000000000000000000000000000000000000000000000 -
b1011000000110000000100110000000000000000000000000000000000000000000000000000000000001011000000000000000000000000000000001000010000000000000000000000000000000000000000000000000000000000000000000000000000000000000000000000000000000 :
b101100000011000000010011 2
b1011 3
b1001000000000 >"
b100000 ,
b100000 V
b100000 .
b100000 ?
b100000 R
1!
#111
b1100 #
#115
0!
#120
b1100 H
b1100 M
b0 ="
b0 <"
b11111111111111111111111111110100 G
b1100 C
b1100 <
b1100 O
b11000 A
b1100 B
b1100 ;
b0 >"
b1101 1
b1100000001000000000100110000000000000000000000000000000000000000000000000000000000001100000000000000000000000000000000001000010000000000000000000000000000000000000000000000000000000000000000000000000000000000000000000000000000000 -
b1100000001000000000100110000000000000000000000000000000000000000000000000000000000001100000000000000000000000000000000001000010000000000000000000000000000000000000000000000000000000000000000000000000000000000000000000000000000000 :
b110000000100000000010011 2
b1100 3
1!
#121
b1101 #
#125
0!
#130
b1101 H
b11111111111111111111111111110011 G
b1101 C
b1101 <
b1101 O
b1101 M
b11010 A
b1101 B
b1101 ;
b1110 1
b1101000001010000000100110000000000000000000000000000000000000000000000000000000000001101000000000000000000000000000000001000010000000000000000000000000000000000000000000000000000000000000000000000000000000000000000000000000000000 -
b1101000001010000000100110000000000000000000000000000000000000000000000000000000000001101000000000000000000000000000000001000010000000000000000000000000000000000000000000000000000000000000000000000000000000000000000000000000000000 :
b110100000101000000010011 2
b1101 3
1!
#131
b1110 #
#135
0!
#140
b1110100000 >
b1110 I
b1110 P
b1110 H
b11111111111111111111111111110010 G
b1110 C
b1110 <
b1110 O
b1110 M
b11100 A
b1110 B
b1110 ;
b1111 1
b1110000001100000000100110000000000000000000000000000000000000000000000000000000000001110000000000000000000000000000000001000010000000000000000000000000000000000000000000000000000000000000000000000000000000000000000000000000000000 -
b1110000001100000000100110000000000000000000000000000000000000000000000000000000000001110000000000000000000000000000000001000010000000000000000000000000000000000000000000000000000000000000000000000000000000000000000000000000000000 :
b111000000110000000010011 2
b1110 3
1!
#141
b1111 #
#145
0!
#150
b0 H
b1110 ;"
b1110 :"
b11111111111111111111111111110001 G
b1111 C
b1111 <
b1111 O
b1111100000 >
b1111 I
b0 M
b1111 P
b11110 A
b1111 B
b1111 ;
b1110 8"
b1110 7"
b1110 6"
b1110 5"
b1110 4"
b1110 3"
b1110 2"
b1110 1"
b1110 0"
b1110 /"
b1110 ."
b1110 -"
b1110 ,"
b1110 +"
b1110 *"
b1110 )"
b1110 ("
b1110 '"
b1110 &"
b1110 %"
b1110 $"
b1110 #"
b1110 ""
b1110 !"
b1110 ~
b1110 }
b1110 |
b1110 {
b1110 z
b1110 y
b1110 x
b1110 w
b10000 1
b1111000001110000000100110000000000000000000000000000000000000000000000000000000000001111000000000000000000000000000000001000010000000000000000000000000000000000000000000000000000000000000000000000000000000000000000000000000000000 -
b1111000001110000000100110000000000000000000000000000000000000000000000000000000000001111000000000000000000000000000000001000010000000000000000000000000000000000000000000000000000000000000000000000000000000000000000000000000000000 :
b111100000111000000010011 2
b1111 3
b1110100000 ,
b1110100000 V
b1110100000 .
b1110100000 ?
b1110100000 R
1!
#151
b10000 #
#155
0!
#160
b10000 H
b1111 ;"
b1111 :"
b10000 M
b1111 8"
b1111 7"
b1111 6"
b1111 5"
b1111 4"
b1111 3"
b1111 2"
b1111 1"
b1111 0"
b1111 /"
b1111 ."
b1111 -"
b1111 ,"
b1111 +"
b1111 *"
b1111 )"
b1111 ("
b1111 '"
b1111 &"
b1111 %"
b1111 $"
b1111 #"
b1111 ""
b1111 !"
b1111 ~
b1111 }
b1111 |
b1111 {
b1111 z
b1111 y
b1111 x
b1111 w
b1110 <"
b1110 ="
b11111111111111111111111111110000 G
b10000 C
b10000 <
b10000 O
b100000100000 >
b100000 I
b100000 P
b100000 A
b10000 B
b10000 ;
b1111100000 ,
b1111100000 V
b1111100000 .
b1111100000 ?
b1111100000 R
b1110 >"
b10001 1
b10000000000000000000100110000000000000000000000000000000000000000000000000000000000010000000000000000000000000000000000001000010000000000000000000000000000000000000000000000000000000000000000000000000000000000000000000000000000000 -
b10000000000000000000100110000000000000000000000000000000000000000000000000000000000010000000000000000000000000000000000001000010000000000000000000000000000000000000000000000000000000000000000000000000000000000000000000000000000000 :
b1000000000000000000010011 2
b10000 3
1!
#161
b10001 #
#165
0!
#170
b10001 H
b10001 M
b100000 ;"
b100000 :"
b11111111111111111111111111101111 G
b10001 C
b10001 <
b10001 O
b1000100000000000000000100000 >
b1000100000000000000000 I
b1000100000000000000000 P
b100010 A
b10001 B
b10001 ;
b1111 ="
b1111 <"
b100000 8"
b100000 7"
b100000 6"
b100000 5"
b100000 4"
b100000 3"
b100000 2"
b100000 1"
b100000 0"
b100000 /"
b100000 ."
b100000 -"
b100000 ,"
b100000 +"
b100000 *"
b100000 )"
b100000 ("
b100000 '"
b100000 &"
b100000 %"
b100000 $"
b100000 #"
b100000 ""
b100000 !"
b100000 ~
b100000 }
b100000 |
b100000 {
b100000 z
b100000 y
b100000 x
b100000 w
b10010 1
b10001000000010000000100110000000000000000000000000000000000000000000000000000000000010001000000000000000000000000000000001000010000000000000000000000000000000000000000000000000000000000000000000000000000000000000000000000000000000 -
b10001000000010000000100110000000000000000000000000000000000000000000000000000000000010001000000000000000000000000000000001000010000000000000000000000000000000000000000000000000000000000000000000000000000000000000000000000000000000 :
b1000100000001000000010011 2
b10001 3
b1111 >"
b100000100000 ,
b100000100000 V
b100000100000 .
b100000100000 ?
b100000100000 R
1!
#171
b10010 #
#175
0!
